<?xml version="1.0" encoding="utf-8"?>
<!DOCTYPE eagle SYSTEM "eagle.dtd">
<eagle version="9.6.2">
<drawing>
<settings>
<setting alwaysvectorfont="no"/>
<setting verticaltext="up"/>
</settings>
<grid distance="0.1" unitdist="inch" unit="inch" style="lines" multiple="1" display="no" altdistance="0.01" altunitdist="inch" altunit="inch"/>
<layers>
<layer number="1" name="Top" color="4" fill="1" visible="yes" active="yes"/>
<layer number="16" name="Bottom" color="1" fill="1" visible="yes" active="yes"/>
<layer number="17" name="Pads" color="2" fill="1" visible="yes" active="yes"/>
<layer number="18" name="Vias" color="2" fill="1" visible="yes" active="yes"/>
<layer number="19" name="Unrouted" color="6" fill="1" visible="yes" active="yes"/>
<layer number="20" name="Dimension" color="24" fill="1" visible="yes" active="yes"/>
<layer number="21" name="tPlace" color="7" fill="1" visible="yes" active="yes"/>
<layer number="22" name="bPlace" color="7" fill="1" visible="yes" active="yes"/>
<layer number="23" name="tOrigins" color="15" fill="1" visible="yes" active="yes"/>
<layer number="24" name="bOrigins" color="15" fill="1" visible="yes" active="yes"/>
<layer number="25" name="tNames" color="7" fill="1" visible="yes" active="yes"/>
<layer number="26" name="bNames" color="7" fill="1" visible="yes" active="yes"/>
<layer number="27" name="tValues" color="7" fill="1" visible="yes" active="yes"/>
<layer number="28" name="bValues" color="7" fill="1" visible="yes" active="yes"/>
<layer number="29" name="tStop" color="7" fill="3" visible="no" active="yes"/>
<layer number="30" name="bStop" color="7" fill="6" visible="no" active="yes"/>
<layer number="31" name="tCream" color="7" fill="4" visible="no" active="yes"/>
<layer number="32" name="bCream" color="7" fill="5" visible="no" active="yes"/>
<layer number="33" name="tFinish" color="6" fill="3" visible="no" active="yes"/>
<layer number="34" name="bFinish" color="6" fill="6" visible="no" active="yes"/>
<layer number="35" name="tGlue" color="7" fill="4" visible="no" active="yes"/>
<layer number="36" name="bGlue" color="7" fill="5" visible="no" active="yes"/>
<layer number="37" name="tTest" color="7" fill="1" visible="no" active="yes"/>
<layer number="38" name="bTest" color="7" fill="1" visible="no" active="yes"/>
<layer number="39" name="tKeepout" color="4" fill="11" visible="yes" active="yes"/>
<layer number="40" name="bKeepout" color="1" fill="11" visible="yes" active="yes"/>
<layer number="41" name="tRestrict" color="4" fill="10" visible="yes" active="yes"/>
<layer number="42" name="bRestrict" color="1" fill="10" visible="yes" active="yes"/>
<layer number="43" name="vRestrict" color="2" fill="10" visible="yes" active="yes"/>
<layer number="44" name="Drills" color="7" fill="1" visible="no" active="yes"/>
<layer number="45" name="Holes" color="7" fill="1" visible="no" active="yes"/>
<layer number="46" name="Milling" color="3" fill="1" visible="no" active="yes"/>
<layer number="47" name="Measures" color="7" fill="1" visible="no" active="yes"/>
<layer number="48" name="Document" color="7" fill="1" visible="yes" active="yes"/>
<layer number="49" name="Reference" color="7" fill="1" visible="yes" active="yes"/>
<layer number="51" name="tDocu" color="7" fill="1" visible="yes" active="yes"/>
<layer number="52" name="bDocu" color="7" fill="1" visible="yes" active="yes"/>
<layer number="88" name="SimResults" color="9" fill="1" visible="yes" active="yes"/>
<layer number="89" name="SimProbes" color="9" fill="1" visible="yes" active="yes"/>
<layer number="90" name="Modules" color="5" fill="1" visible="yes" active="yes"/>
<layer number="91" name="Nets" color="2" fill="1" visible="yes" active="yes"/>
<layer number="92" name="Busses" color="1" fill="1" visible="yes" active="yes"/>
<layer number="93" name="Pins" color="2" fill="1" visible="yes" active="yes"/>
<layer number="94" name="Symbols" color="4" fill="1" visible="yes" active="yes"/>
<layer number="95" name="Names" color="7" fill="1" visible="yes" active="yes"/>
<layer number="96" name="Values" color="7" fill="1" visible="yes" active="yes"/>
<layer number="97" name="Info" color="7" fill="1" visible="yes" active="yes"/>
<layer number="98" name="Guide" color="6" fill="1" visible="yes" active="yes"/>
</layers>
<library>
<packages>
<package name="CONNECTION_PADS">
<smd name="P1" x="0" y="0" dx="4" dy="4" layer="1"/>
<smd name="P2" x="9" y="0" dx="4" dy="4" layer="1"/>
<smd name="P3" x="18" y="0" dx="4" dy="4" layer="1"/>
<smd name="P4" x="27" y="0" dx="4" dy="4" layer="1"/>
<smd name="P5" x="36" y="0" dx="4" dy="4" layer="1"/>
<smd name="P6" x="45" y="0" dx="4" dy="4" layer="1"/>
<smd name="P7" x="54" y="0" dx="4" dy="4" layer="1"/>
<circle x="2.13" y="-1.83" radius="0.22360625" width="0.127" layer="22"/>
<text x="20.19" y="-0.49" size="1.27" layer="21">&gt;NAME</text>
</package>
</packages>
<symbols>
<symbol name="CONNECTION_PADS">
<pin name="P$1" x="0" y="10.16" visible="pad" length="middle"/>
<pin name="P$2" x="0" y="5.08" visible="pad" length="middle"/>
<pin name="P$3" x="0" y="0" visible="pad" length="middle"/>
<pin name="P$0" x="0" y="15.24" visible="pad" length="middle"/>
<pin name="P$5" x="0" y="-10.16" visible="pad" length="middle"/>
<pin name="P$6" x="0" y="-15.24" visible="pad" length="middle"/>
<pin name="P$4" x="0" y="-5.08" visible="pad" length="middle"/>
<text x="-2.54" y="17.78" size="1.778" layer="95">&gt;NAME</text>
</symbol>
</symbols>
<devicesets>
<deviceset name="CONNECTION_PADS" prefix="P">
<description>&lt;b&gt;Connection pad between the Logic and Power boards &lt;/b&gt;</description>
<gates>
<gate name="G$1" symbol="CONNECTION_PADS" x="0" y="0"/>
</gates>
<devices>
<device name="" package="CONNECTION_PADS">
<connects>
<connect gate="G$1" pin="P$0" pad="P1"/>
<connect gate="G$1" pin="P$1" pad="P2"/>
<connect gate="G$1" pin="P$2" pad="P3"/>
<connect gate="G$1" pin="P$3" pad="P6"/>
<connect gate="G$1" pin="P$4" pad="P7"/>
<connect gate="G$1" pin="P$5" pad="P4"/>
<connect gate="G$1" pin="P$6" pad="P5"/>
</connects>
<technologies>
<technology name=""/>
</technologies>
</device>
</devices>
</deviceset>
</devicesets>
</library>
</drawing>
</eagle>
